57 12 113
18 71 113
46 25 112
39 97 119
46 100 119
44 87 116
90 34 116
85 41 116
47 86 116
87 19 116
62 16 113
21 94 116
70 37 113
94 75 111
5 70 113
22 59 113
62 12 113
16 59 113
91 69 116
52 72 113
88 36 116
86 86 31
89 100 119
86 13 116
39 42 110
45 87 116
63 72 108
90 82 111
48 9 112
23 56 113
72 87 116
67 10 113
50 85 116
86 51 116
76 38 116
85 60 116
16 11 18
86 33 116
3 35 112
43 31 110
47 89 116
81 39 116
43 21 112
61 80 116
2 95 116
57 34 113
44 33 110
9 88 116
2 62 113
1 48 112
73 61 116
46 22 112
35 13 112
55 85 116
93 88 93
43 93 116
37 47 110
20 22 16
42 87 116
92 17 116
61 96 116
57 14 113
61 58 33
62 47 113
93 15 116
96 10 116
98 25 119
28 65 113
51 4 112
6 82 116
89 100 119
17 95 116
61 34 113
33 3 112
27 30 112
30 91 116
85 52 116
80 5 116
8 43 112
38 97 119
55 66 113
92 95 106
9 82 116
99 50 119
78 74 36
26 1 24
19 96 116
65 61 108
59 3 113
42 74 116
36 17 112
30 55 113
95 87 106
23 90 116
32 65 113
55 4 113
41 17 112
86 92 93
38 46 110
68 21 113
114753 431954 449
133278 804777 509
662297 926600 525
530229 951408 525
594931 400417 470
416055 559232 470
168426 845244 525
572407 269999 470
933629 142933 525
524203 152312 470
751890 229551 509
75007 107771 354
215521 934114 525
271416 634492 509
196815 370675 443
283607 791224 509
883230 972605 507
936087 215501 525
483374 990844 525
434137 72527 449
192591 970248 525
911300 124492 525
676086 897697 525
633490 338468 509
89143 795430 509
826984 55976 509
767280 814168 468
317280 505754 449
495241 214887 449
934832 154223 525
204715 877533 525
333232 420274 449
784670 541742 509
74728 567009 470
294042 770150 509
555098 719153 509
490987 535167 470
405406 994603 525
60339 852205 525
364187 230326 443
812118 478022 509
885273 97423 525
283795 548107 470
735911 989055 525
101052 806975 509
53523 743648 509
313975 508845 449
70801 537767 470
816328 449516 509
288820 242989 407
457716 351678 449
433046 85008 449
517033 479201 470
765213 336567 509
695326 860658 525
424374 85733 449
18913 810809 509
687197 282469 509
571221 470774 470
81179 189388 383
856268 861256 375
256729 626567 509
708438 363209 509
891035 563397 525
616631 397061 470
104155 334212 443
629286 247843 509
425577 817542 509
59789 390902 443
423383 133862 449
145308 513536 470
456870 109773 449
609487 536209 452
397900 167343 443
499102 434446 444
919268 682906 525
184327 874363 525
716597 222473 509
527435 409102 470
615368 985621 525
296634 859376 525
465100 980230 525
648010 878196 525
356196 67090 443
596288 368951 470
597487 725568 509
993695 324134 525
730718 58445 509
751973 683685 504
915541 116600 525
443921 845442 525
543464 907455 525
130033 366848 443
183130 559701 470
459251 873193 525
927617 277297 525
632817 853886 525
705623 825524 468
553391 662925 509
64534 403929 443
507013 535053 470
775732 745095 468
481382 52304 449
219210 47382 386
474758 614441 470
562878 96453 470
817837 119133 509
169135 475256 449
95004 129467 354
994490 310166 525
803968 362596 509
556208 94220 470
590861 267350 470
6390 198759 383
778053 475855 509
330260 847858 525
194016 43963 383
593781 574719 434
80415 389338 443
57874 174388 383
623984 552528 447
742167 259705 509
586573 678792 509
338565 570312 470
380504 88929 443
402592 126181 443
16308 588444 470
147884 536897 470
597221 321981 470
568839 8894 470
586135 908983 525
788960 995877 525
257607 975479 525
645357 464948 509
162512 993829 525
583274 558042 421
8405 960880 525
534715 309843 470
109754 292143 443
493105 7523 449
167512 694666 509
326202 671864 509
598457 165664 470
37387 780148 509
981638 479373 525
97171 525841 470
492889 332243 449
87268 812121 509
674658 26992 509
693619 757837 504
572516 447508 470
909981 916765 476
741656 720328 424
90313 201069 383
305327 77465 443
424482 577470 470
217030 730319 509
678859 546230 509
44383 1925 324
116115 145697 375
730507 106314 509
150759 184782 383
508852 4176 449
896451 118326 525
499027 387646 449
185949 563934 470
877061 164648 525
725374 469385 509
699528 472397 509
866071 225080 525
219184 55677 386
597026 222011 470
449259 151037 449
413225 298503 449
851170 761205 525
753587 970410 525
491708 530055 470
122774 381969 443
682059 180879 509
176738 176777 197
845329 482817 525
506034 604899 470
95204 744891 509
398303 763303 509
450750 760402 509
598840 363768 470
631573 132500 509
227853 899078 525
347441 585655 470
355981 773291 509
964790 547787 525
817706 710371 468
957673 688226 525
217662 65562 386
573101 967076 525
713364 8665 509
470845 991351 525
680938 504386 509
82445 797240 509
846280 442195 525
