432791 879985 525
1 10 20
201331 170909 365
990363 514013 525
495358 977227 525
653755 594607 509
631947 630678 310
842839 648252 525
533407 652571 509
320347 973025 525
417491 739154 509
948959 209336 525
138760 612497 470
484089 602842 470
774991 875799 525
255265 200398 443
748380 675029 504
666936 958425 525
652229 996769 525
745730 392087 509
258844 464581 449
855195 351791 525
313952 118427 443
395921 362490 436
73273 627883 509
90030 171867 383
390520 755063 509
120185 239765 443
681405 789084 504
693206 209772 509
36751 960984 525
811360 45775 509
746888 215930 509
505335 237634 449
603431 320054 470
363350 690475 509
933877 525043 525
30682 118501 354
487075 910616 525
729344 692262 504
818441 482527 509
913899 385473 525
378235 534583 470
65638 74073 325
273035 488993 449
130989 283963 443
437417 943216 525
858585 547783 525
278744 980928 525
222603 140404 386
720959 948531 525
134012 831278 509
820509 37951 509
378819 677357 509
42551 271882 443
42835 371313 443
244130 114969 443
707638 214452 509
942726 219727 525
618110 215122 470
584052 678557 509
261859 838791 525
606693 82817 470
875330 824838 525
41633 956560 525
319021 378965 441
581993 635702 509
464926 927424 525
119666 50477 354
612844 995921 525
834989 139172 509
908249 725427 525
414738 864883 525
45446 471896 449
185685 78513 383
234364 551545 470
102840 150383 375
324681 811318 509
619 896554 525
714924 225013 509
541898 528838 408
99638 96793 328
786500 627633 504
625391 133260 470
426408 809707 509
720291 842847 525
431984 30264 449
393416 674260 509
115157 306928 443
998339 730015 525
808579 188481 509
973111 376422 525
465265 491977 413
50981 884232 525
960351 636747 525
396476 213797 443
865421 957395 507
496273 894731 525
279987 951695 525
274552 556527 470
306440 448711 449
57076 824258 509
375142 943633 525
355734 907633 525
234239 42642 443
351426 182762 443
692185 587120 509
102353 199705 383
595493 43436 470
15396 114606 354
408927 812140 509
99745 892257 525
553664 46275 470
716796 974226 525
327617 719300 509
380219 611437 470
307912 581798 470
163558 134779 383
154071 941750 525
547590 380042 470
219013 377015 443
4640 591163 470
656313 151774 509
412419 432688 418
15168 781429 509
623302 372623 470
517650 908461 525
645960 229463 509
968335 17519 525
642571 990404 525
65747 972581 525
607248 516842 452
171353 173900 347
305242 546964 470
501293 207244 449
527769 429395 470
934841 735283 525
889825 802992 525
429734 719649 509
856194 104610 525
734264 864329 525
42177 300455 443
977361 100400 525
456541 746438 509
902956 264892 525
154731 538843 470
240956 263055 363
652851 28336 509
923812 993253 507
966540 238395 525
966635 465766 525
526101 11192 470
398531 648705 509
614442 982211 525
20690 755169 509
284634 412670 449
218189 571963 470
780345 614606 509
482093 674464 509
398427 71533 443
169720 126216 383
436410 135852 449
706590 598786 509
535257 267250 470
124835 539663 470
770750 312611 509
191228 781377 509
44651 648335 509
974657 281397 525
758007 410587 509
54521 38551 340
589938 800822 509
448802 635359 509
800576 878306 525
389559 946402 525
407606 868833 525
641172 939525 525
460556 824190 509
746374 937102 525
257830 919220 525
171565 911188 525
958033 941038 414
705200 282949 509
277273 619824 470
952036 872018 507
889455 583038 525
707952 157404 509
731972 480811 509
818912 681761 504
238030 277793 407
540763 202836 470
107748 443962 449
991358 748947 525
777815 222323 509
471224 815583 509
200690 106945 383
720776 857999 525
486257 862406 525
748081 476040 509
373061 856644 525
