1 1001 179
1 2001 182
1 3001 217
1 4001 238
1 5001 238
1 6001 238
1 7001 262
1 8001 262
1 9001 262
1 10001 262
1 11001 268
1 12001 268
1 13001 268
1 14001 276
1 15001 276
1 16001 276
1 17001 276
1 18001 279
1 19001 279
1 20001 279
1 21001 279
1 22001 279
1 23001 279
1 24001 282
1 25001 282
1 26001 282
1 27001 308
1 28001 308
1 29001 308
1 30001 308
1 31001 308
1 32001 308
1 33001 308
1 34001 308
1 35001 311
1 36001 324
1 37001 324
1 38001 324
1 39001 324
1 40001 324
1 41001 324
1 42001 324
1 43001 324
1 44001 324
1 45001 324
1 46001 324
1 47001 324
1 48001 324
1 49001 324
1 50001 324
1 51001 324
1 52001 324
1 53001 340
1 54001 340
1 55001 340
1 56001 340
1 57001 340
1 58001 340
1 59001 340
1 60001 340
1 61001 340
1 62001 340
1 63001 340
1 64001 340
1 65001 340
1 66001 340
1 67001 340
1 68001 340
1 69001 340
1 70001 340
1 71001 340
1 72001 340
1 73001 340
1 74001 340
1 75001 340
1 76001 340
1 77001 340
1 78001 351
1 79001 351
1 80001 351
1 81001 351
1 82001 351
1 83001 351
1 84001 351
1 85001 351
1 86001 351
1 87001 351
1 88001 351
1 89001 351
1 90001 351
1 91001 351
1 92001 351
1 93001 351
1 94001 351
1 95001 351
1 96001 351
1 97001 351
1 98001 351
1 99001 351
1 100001 351
1 101001 351
1 102001 351
1 103001 351
1 104001 351
1 105001 351
1 106001 351
1 107001 354
1 108001 354
1 109001 354
1 110001 354
1 111001 354
1 112001 354
1 113001 354
1 114001 354
1 115001 354
1 116001 354
1 117001 354
1 118001 354
1 119001 354
1 120001 354
1 121001 354
1 122001 354
1 123001 354
1 124001 354
1 125001 354
1 126001 354
1 127001 354
1 128001 354
1 129001 354
1 130001 354
1 131001 354
1 132001 354
1 133001 354
1 134001 354
1 135001 354
1 136001 354
1 137001 354
1 138001 354
1 139001 354
1 140001 354
1 141001 354
1 142001 354
1 143001 375
1 144001 375
1 145001 375
1 146001 375
1 147001 375
1 148001 375
1 149001 375
1 150001 375
1 151001 375
1 152001 375
1 153001 375
1 154001 375
1 155001 375
1 156001 375
1 157001 383
1 158001 383
1 159001 383
1 160001 383
1 161001 383
1 162001 383
1 163001 383
1 164001 383
1 165001 383
1 166001 383
1 167001 383
1 168001 383
1 169001 383
1 170001 383
1 171001 383
1 172001 383
1 173001 383
1 174001 383
1 175001 383
1 176001 383
1 177001 383
1 178001 383
1 179001 383
1 180001 383
1 181001 383
1 182001 383
1 183001 383
1 184001 383
1 185001 383
1 186001 383
1 187001 383
1 188001 383
1 189001 383
1 190001 383
1 191001 383
1 192001 383
1 193001 383
1 194001 383
1 195001 383
1 196001 383
1 197001 383
1 198001 383
1 199001 383
1 200001 383
1 201001 383
1 202001 383
1 203001 383
1 204001 383
1 205001 383
1 206001 383
1 207001 383
1 208001 383
1 209001 383
1 210001 383
1 211001 383
1 212001 383
1 213001 383
1 214001 383
1 215001 383
1 216001 383
1 217001 386
1 218001 386
1 219001 386
1 220001 386
1 221001 386
1 222001 386
1 223001 386
1 224001 386
1 225001 386
1 226001 386
1 227001 386
1 228001 386
1 229001 386
1 230001 386
1 231001 443
1 232001 443
1 233001 443
1 234001 443
1 235001 443
1 236001 443
1 237001 443
1 238001 443
1 239001 443
1 240001 443
1 241001 443
1 242001 443
1 243001 443
1 244001 443
1 245001 443
1 246001 443
1 247001 443
1 248001 443
1 249001 443
1 250001 443
1 251001 443
1 252001 443
1 253001 443
1 254001 443
1 255001 443
1 256001 443
1 257001 443
1 258001 443
1 259001 443
1 260001 443
1 261001 443
1 262001 443
1 263001 443
1 264001 443
1 265001 443
1 266001 443
1 267001 443
1 268001 443
1 269001 443
1 270001 443
1 271001 443
1 272001 443
1 273001 443
1 274001 443
1 275001 443
1 276001 443
1 277001 443
1 278001 443
1 279001 443
1 280001 443
1 281001 443
1 282001 443
1 283001 443
1 284001 443
1 285001 443
1 286001 443
1 287001 443
1 288001 443
1 289001 443
1 290001 443
1 291001 443
1 292001 443
1 293001 443
1 294001 443
1 295001 443
1 296001 443
1 297001 443
1 298001 443
1 299001 443
1 300001 443
1 301001 443
1 302001 443
1 303001 443
1 304001 443
1 305001 443
1 306001 443
1 307001 443
1 308001 443
1 309001 443
1 310001 443
1 311001 443
1 312001 443
1 313001 443
1 314001 443
1 315001 443
1 316001 443
1 317001 443
1 318001 443
1 319001 443
1 320001 443
1 321001 443
1 322001 443
1 323001 443
1 324001 443
1 325001 443
1 326001 443
1 327001 443
1 328001 443
1 329001 443
1 330001 443
1 331001 443
1 332001 443
1 333001 443
1 334001 443
1 335001 443
1 336001 443
1 337001 443
1 338001 443
1 339001 443
1 340001 443
1 341001 443
1 342001 443
1 343001 443
1 344001 443
1 345001 443
1 346001 443
1 347001 443
1 348001 443
1 349001 443
1 350001 443
1 351001 443
1 352001 443
1 353001 443
1 354001 443
1 355001 443
1 356001 443
1 357001 443
1 358001 443
1 359001 443
1 360001 443
1 361001 443
1 362001 443
1 363001 443
1 364001 443
1 365001 443
1 366001 443
1 367001 443
1 368001 443
1 369001 443
1 370001 443
1 371001 443
1 372001 443
1 373001 443
1 374001 443
1 375001 443
1 376001 443
1 377001 443
1 378001 443
1 379001 443
1 380001 443
1 381001 443
1 382001 443
1 383001 443
1 384001 443
1 385001 443
1 386001 443
1 387001 443
1 388001 443
1 389001 443
1 390001 443
1 391001 443
1 392001 443
1 393001 443
1 394001 443
1 395001 443
1 396001 443
1 397001 443
1 398001 443
1 399001 443
1 400001 443
1 401001 443
1 402001 443
1 403001 443
1 404001 443
1 405001 443
1 406001 443
1 407001 443
1 408001 443
1 409001 443
1 410001 443
1 411001 449
1 412001 449
1 413001 449
1 414001 449
1 415001 449
1 416001 449
1 417001 449
1 418001 449
1 419001 449
1 420001 449
1 421001 449
1 422001 449
1 423001 449
1 424001 449
1 425001 449
1 426001 449
1 427001 449
1 428001 449
1 429001 449
1 430001 449
1 431001 449
1 432001 449
1 433001 449
1 434001 449
1 435001 449
1 436001 449
1 437001 449
1 438001 449
1 439001 449
1 440001 449
1 441001 449
1 442001 449
1 443001 449
1 444001 449
1 445001 449
1 446001 449
1 447001 449
1 448001 449
1 449001 449
1 450001 449
1 451001 449
1 452001 449
1 453001 449
1 454001 449
1 455001 449
1 456001 449
1 457001 449
1 458001 449
1 459001 449
1 460001 449
1 461001 449
1 462001 449
1 463001 449
1 464001 449
1 465001 449
1 466001 449
1 467001 449
1 468001 449
1 469001 449
1 470001 449
1 471001 449
1 472001 449
1 473001 449
1 474001 449
1 475001 449
1 476001 449
1 477001 449
1 478001 449
1 479001 449
1 480001 449
1 481001 449
1 482001 449
1 483001 449
1 484001 449
1 485001 449
1 486001 449
1 487001 449
1 488001 449
1 489001 449
1 490001 449
1 491001 449
1 492001 449
1 493001 449
1 494001 449
1 495001 449
1 496001 449
1 497001 449
1 498001 449
1 499001 449
1 500001 449
1 501001 449
1 502001 449
1 503001 449
1 504001 449
1 505001 449
1 506001 449
1 507001 449
1 508001 449
1 509001 449
1 510001 449
1 511001 449
1 512001 470
1 513001 470
1 514001 470
1 515001 470
1 516001 470
1 517001 470
1 518001 470
1 519001 470
1 520001 470
1 521001 470
1 522001 470
1 523001 470
1 524001 470
1 525001 470
1 526001 470
1 527001 470
1 528001 470
1 529001 470
1 530001 470
1 531001 470
1 532001 470
1 533001 470
1 534001 470
1 535001 470
1 536001 470
1 537001 470
1 538001 470
1 539001 470
1 540001 470
1 541001 470
1 542001 470
1 543001 470
1 544001 470
1 545001 470
1 546001 470
1 547001 470
1 548001 470
1 549001 470
1 550001 470
1 551001 470
1 552001 470
1 553001 470
1 554001 470
1 555001 470
1 556001 470
1 557001 470
1 558001 470
1 559001 470
1 560001 470
1 561001 470
1 562001 470
1 563001 470
1 564001 470
1 565001 470
1 566001 470
1 567001 470
1 568001 470
1 569001 470
1 570001 470
1 571001 470
1 572001 470
1 573001 470
1 574001 470
1 575001 470
1 576001 470
1 577001 470
1 578001 470
1 579001 470
1 580001 470
1 581001 470
1 582001 470
1 583001 470
1 584001 470
1 585001 470
1 586001 470
1 587001 470
1 588001 470
1 589001 470
1 590001 470
1 591001 470
1 592001 470
1 593001 470
1 594001 470
1 595001 470
1 596001 470
1 597001 470
1 598001 470
1 599001 470
1 600001 470
1 601001 470
1 602001 470
1 603001 470
1 604001 470
1 605001 470
1 606001 470
1 607001 470
1 608001 470
1 609001 470
1 610001 470
1 611001 470
1 612001 470
1 613001 470
1 614001 470
1 615001 470
1 616001 470
1 617001 470
1 618001 470
1 619001 470
1 620001 470
1 621001 470
1 622001 470
1 623001 470
1 624001 470
1 625001 470
1 626001 470
1 627001 509
1 628001 509
1 629001 509
1 630001 509
1 631001 509
1 632001 509
1 633001 509
1 634001 509
1 635001 509
1 636001 509
1 637001 509
1 638001 509
1 639001 509
1 640001 509
1 641001 509
1 642001 509
1 643001 509
1 644001 509
1 645001 509
1 646001 509
1 647001 509
1 648001 509
1 649001 509
1 650001 509
1 651001 509
1 652001 509
1 653001 509
1 654001 509
1 655001 509
1 656001 509
1 657001 509
1 658001 509
1 659001 509
1 660001 509
1 661001 509
1 662001 509
1 663001 509
1 664001 509
1 665001 509
1 666001 509
1 667001 509
1 668001 509
1 669001 509
1 670001 509
1 671001 509
1 672001 509
1 673001 509
1 674001 509
1 675001 509
1 676001 509
1 677001 509
1 678001 509
1 679001 509
1 680001 509
1 681001 509
1 682001 509
1 683001 509
1 684001 509
1 685001 509
1 686001 509
1 687001 509
1 688001 509
1 689001 509
1 690001 509
1 691001 509
1 692001 509
1 693001 509
1 694001 509
1 695001 509
1 696001 509
1 697001 509
1 698001 509
1 699001 509
1 700001 509
1 701001 509
1 702001 509
1 703001 509
1 704001 509
1 705001 509
1 706001 509
1 707001 509
1 708001 509
1 709001 509
1 710001 509
1 711001 509
1 712001 509
1 713001 509
1 714001 509
1 715001 509
1 716001 509
1 717001 509
1 718001 509
1 719001 509
1 720001 509
1 721001 509
1 722001 509
1 723001 509
1 724001 509
1 725001 509
1 726001 509
1 727001 509
1 728001 509
1 729001 509
1 730001 509
1 731001 509
1 732001 509
1 733001 509
1 734001 509
1 735001 509
1 736001 509
1 737001 509
1 738001 509
1 739001 509
1 740001 509
1 741001 509
1 742001 509
1 743001 509
1 744001 509
1 745001 509
1 746001 509
1 747001 509
1 748001 509
1 749001 509
1 750001 509
1 751001 509
1 752001 509
1 753001 509
1 754001 509
1 755001 509
1 756001 509
1 757001 509
1 758001 509
1 759001 509
1 760001 509
1 761001 509
1 762001 509
1 763001 509
1 764001 509
1 765001 509
1 766001 509
1 767001 509
1 768001 509
1 769001 509
1 770001 509
1 771001 509
1 772001 509
1 773001 509
1 774001 509
1 775001 509
1 776001 509
1 777001 509
1 778001 509
1 779001 509
1 780001 509
1 781001 509
1 782001 509
1 783001 509
1 784001 509
1 785001 509
1 786001 509
1 787001 509
1 788001 509
1 789001 509
1 790001 509
1 791001 509
1 792001 509
1 793001 509
1 794001 509
1 795001 509
1 796001 509
1 797001 509
1 798001 509
1 799001 509
1 800001 509
1 801001 509
1 802001 509
1 803001 509
1 804001 509
1 805001 509
1 806001 509
1 807001 509
1 808001 509
1 809001 509
1 810001 509
1 811001 509
1 812001 509
1 813001 509
1 814001 509
1 815001 509
1 816001 509
1 817001 509
1 818001 509
1 819001 509
1 820001 509
1 821001 509
1 822001 509
1 823001 509
1 824001 509
1 825001 509
1 826001 509
1 827001 509
1 828001 509
1 829001 509
1 830001 509
1 831001 509
1 832001 509
1 833001 509
1 834001 509
1 835001 509
1 836001 509
1 837001 509
1 838001 525
1 839001 525
1 840001 525
1 841001 525
1 842001 525
1 843001 525
1 844001 525
1 845001 525
1 846001 525
1 847001 525
1 848001 525
1 849001 525
1 850001 525
1 851001 525
1 852001 525
1 853001 525
1 854001 525
1 855001 525
1 856001 525
1 857001 525
1 858001 525
1 859001 525
1 860001 525
1 861001 525
1 862001 525
1 863001 525
1 864001 525
1 865001 525
1 866001 525
1 867001 525
1 868001 525
1 869001 525
1 870001 525
1 871001 525
1 872001 525
1 873001 525
1 874001 525
1 875001 525
1 876001 525
1 877001 525
1 878001 525
1 879001 525
1 880001 525
1 881001 525
1 882001 525
1 883001 525
1 884001 525
1 885001 525
1 886001 525
1 887001 525
1 888001 525
1 889001 525
1 890001 525
1 891001 525
1 892001 525
1 893001 525
1 894001 525
1 895001 525
1 896001 525
1 897001 525
1 898001 525
1 899001 525
1 900001 525
1 901001 525
1 902001 525
1 903001 525
1 904001 525
1 905001 525
1 906001 525
1 907001 525
1 908001 525
1 909001 525
1 910001 525
1 911001 525
1 912001 525
1 913001 525
1 914001 525
1 915001 525
1 916001 525
1 917001 525
1 918001 525
1 919001 525
1 920001 525
1 921001 525
1 922001 525
1 923001 525
1 924001 525
1 925001 525
1 926001 525
1 927001 525
1 928001 525
1 929001 525
1 930001 525
1 931001 525
1 932001 525
1 933001 525
1 934001 525
1 935001 525
1 936001 525
1 937001 525
1 938001 525
1 939001 525
1 940001 525
1 941001 525
1 942001 525
1 943001 525
1 944001 525
1 945001 525
1 946001 525
1 947001 525
1 948001 525
1 949001 525
1 950001 525
1 951001 525
1 952001 525
1 953001 525
1 954001 525
1 955001 525
1 956001 525
1 957001 525
1 958001 525
1 959001 525
1 960001 525
1 961001 525
1 962001 525
1 963001 525
1 964001 525
1 965001 525
1 966001 525
1 967001 525
1 968001 525
1 969001 525
1 970001 525
1 971001 525
1 972001 525
1 973001 525
1 974001 525
1 975001 525
1 976001 525
1 977001 525
1 978001 525
1 979001 525
1 980001 525
1 981001 525
1 982001 525
1 983001 525
1 984001 525
1 985001 525
1 986001 525
1 987001 525
1 988001 525
1 989001 525
1 990001 525
1 991001 525
1 992001 525
1 993001 525
1 994001 525
1 995001 525
1 996001 525
1 997001 525
1 998001 525
1 999001 525
5 2000 182

