142373 745833 509
744078 717597 424
309102 783598 509
52852 192403 383
354283 827461 509
942905 418874 525
582273 738881 509
437888 790932 509
892871 330711 525
616114 454084 470
643885 868647 525
946015 702359 525
422243 551005 470
215967 361716 443
847526 370789 525
16062 47211 324
749421 102636 509
393727 974174 525
845194 628320 525
482210 213038 449
903561 857554 445
622257 608535 447
244583 445575 449
211987 519345 470
555689 576550 421
846115 945373 507
688370 821047 504
904169 524861 525
840293 374599 525
726387 742412 424
949396 241374 525
114879 956855 525
324202 107866 443
958282 264472 525
9347 576360 470
331537 482754 449
460680 174208 449
349203 26228 443
937582 692866 525
641390 187316 509
51734 818906 509
960139 64849 525
33698 310422 443
648377 6444 509
422731 652950 509
433268 632451 509
616573 410897 470
351789 148351 443
838179 738358 525
312658 438280 449
604774 539527 452
503114 445903 444
578849 846659 525
480351 758681 509
871469 944120 507
344526 536445 470
182868 963114 525
307408 961054 525
492080 21370 449
164524 973697 525
560166 531077 452
677177 946589 525
449855 269047 449
414644 449493 418
253190 340031 407
426523 420639 418
636813 553070 509
431513 758402 509
860380 92331 525
895285 587655 525
225528 773138 509
860358 522899 525
343327 800895 509
718049 142401 509
403491 15387 443
466739 232311 449
381594 408612 436
340862 357184 441
391541 199901 443
18008 559071 470
654615 186582 509
599607 820019 509
235073 544897 470
78378 388353 443
262816 138766 443
320885 643369 509
743190 979507 525
479951 463406 413
397098 436490 449
978407 967558 458
745831 595641 509
868018 761089 525
675294 509355 509
15684 334238 443
338004 994282 525
402677 188931 443
450411 190494 449
919834 507292 525
827935 273232 509
618060 863604 525
852594 711800 525
764821 264839 509
421337 157512 449
188982 298457 443
558383 190997 470
487188 846287 525
231439 627192 509
546745 700488 509
747633 818477 468
784564 334998 509
775318 236324 509
283448 538197 470
729014 902340 525
606039 523475 452
667404 835433 504
765896 916569 525
463899 813588 509
196153 125530 383
481875 201641 449
58957 160542 383
175602 330679 443
202367 399978 443
332430 637326 509
279129 142440 443
408079 192292 443
144978 756604 509
556709 477005 470
277085 409106 441
338864 699594 509
111832 256570 443
104429 4290 351
902968 8184 525
422442 121545 449
255659 755423 509
410725 234667 449
236770 463315 449
59496 995486 525
390501 217578 443
756062 839448 525
382741 855062 525
200964 42257 383
921480 553424 525
223843 940038 525
461838 587259 470
951461 329002 525
134170 420693 449
198426 360817 443
951715 613858 525
967975 459889 525
219441 241033 443
106119 641373 509
357984 533373 470
410958 575679 470
835899 697530 504
554844 999586 525
755320 401594 509
49191 884771 525
974144 642414 525
270869 458135 449
386837 673253 509
659947 457543 509
542521 255084 470
960736 252297 525
782931 17530 509
431867 793513 509
625186 818814 509
269006 295465 407
741750 521294 509
253133 320277 407
60768 833820 509
26162 677315 509
642216 3808 509
328139 325740 322
688472 417981 509
559937 600115 434
118689 60153 354
836614 130006 509
408476 339636 441
560280 52067 470
529115 60236 470
141481 988261 525
234971 789112 509
502146 236711 449
784915 929310 525
445246 708769 509
876477 524106 525
572263 546396 452
9178 90967 351
285935 669588 509
128149 201782 383
518678 721610 509
727281 245948 509
491831 209685 449
118911 827133 509
912048 571782 525
768465 271154 509
589990 894915 525
182821 530129 470
805568 593470 509
628517 394717 509
507955 921630 525
799366 541067 509
724754 759541 424
138145 932360 525
174354 136356 383
5954 220899 386
954253 670787 525
198940 723823 509
394681 590341 470
269076 766231 509
109263 759971 509
803854 215914 509
863115 919554 476
347213 900921 525
352042 857476 525
434124 44620 449
943840 72492 525
958890 178092 525
725617 975606 525
945355 459014 525
646692 768704 504
562309 692920 509
69703 777925 509
880198 10224 525
210236 625106 470
792101 215299 509
461255 568436 470
160373 507942 449
496461 897686 525
346985 291489 441
599198 863346 525
643947 886410 525
702172 275353 509
449460 441752 369
56982 702636 509
27626 546464 470
395363 120066 443
230689 118632 443
470201 588541 470
35685 189336 383
798505 276936 509
355128 747938 509
773762 578553 509
49894 80006 351
260676 747257 509
809505 284187 509
78822 312894 443
488613 196685 449
383186 230389 443
239567 393904 441
