5 50 112
10 2000 182
1230 2343 183
2343 1230 183
999998 999999 259
999999 999998 259
1 1 1
100 1234 182
1923 2394 183
590 622 132
1234 1502 177
123456 123457 88
582039 581938 160
1 999999 525
10293 10693 255
999999 999999 259
615447 615973 310
968464 968970 308
394428 394848 405
519438 519571 302
678362 678402 261
800350 800760 282
533924 534198 302
346120 346649 348
194689 195217 342
642068 642747 416
187654 188072 285
459934 460337 307
676483 677177 305
704988 705437 380
245560 245840 319
757791 758261 287
201157 201206 236
761401 761457 300
866349 866372 158
713878 714418 305
634597 635005 310
497812 497913 289
351274 351835 379
33431 34035 267
365504 366034 335
977025 977680 321
260021 260034 301
595687 596164 297
474585 475073 351
270548 270829 363
213084 213304 280
933625 934157 370
629893 630480 341
217554 218129 262
692584 692625 230
939081 939327 339
35075 35469 280
356317 356378 242
83563 84097 289
616380 616570 310
604652 604859 253
552400 552823 315
944444 944637 383
964821 965472 277
509445 509524 227
822490 822701 238
777886 778177 269
381650 381697 224
622104 622440 310
415276 415562 250
337383 337955 366
992829 993312 352
854917 855408 264
41900 42592 288
156643 157033 308
263675 263890 270
912956 913395 264
684134 684397 336
669282 669782 292
444223 444275 188
871905 872262 432
503228 503518 258
195024 195463 298
836270 836744 313
150506 150891 295
257511 257687 257
972858 973389 321
713056 713753 380
918877 919537 339
581891 582104 328
213702 213867 218
257634 257682 257
960822 961057 414
718781 719351 318
515015 515391 395
183514 184043 285
407935 408442 299
517753 517861 302
403908 403982 237
924714 925141 339
500283 500323 302
925516 925721 339
402463 403157 268
192447 192695 272
966115 966709 365
667030 667438 367
969938 970147 290
190058 190486 329
322675 323294 322
57459 57840 273
481520 481652 276
380112 380724 379
173651 173721 272
939564 939666 202
481753 482198 382
600270 600949 297
650904 651559 336
674360 674577 248
192683 193246 347
891985 892030 264
849563 248644 525
706481 309079 509
94864 687011 509
586121 424032 470
776473 338994 509
100990 246870 443
864322 361616 525
296219 895850 525
357470 905922 525
424316 554383 470
795002 514623 509
409900 639183 509
460795 611598 470
223199 145232 386
207668 424452 449
995530 100979 525
160033 977943 525
56222 365545 443
321091 626026 470
703618 551682 509
330791 135852 443
40771 431941 449
159787 957007 525
823282 841502 525
618624 891017 525
753477 265577 509
180571 283645 443
230929 840703 525
347477 375383 410
676221 655571 442
188299 581019 470
915289 964203 507
682063 55373 509
426376 819283 509
353027 176495 443
893182 591706 525
179302 897175 525
58772 196685 383
955216 732905 525
936721 358119 525
19776 3588 279
831578 610646 509
253329 154632 443
791106 788300 406
253280 243518 350
185103 42033 383
48512 482896 449
211557 728234 509
99837 631296 509
875866 336423 525
674563 732878 504
53732 8255 340
173376 577805 470
698175 137597 509
621695 906521 525
29391 969426 525
274671 962621 525
446737 941534 525
752120 217794 509
745166 904217 525
977499 479813 525
346582 716669 509
998563 881490 507
941897 172281 525
18422 757934 509
353986 100819 443
709727 819742 468
533556 316754 470
600543 29895 470
925153 104747 525
762189 558870 509
984175 391728 525
890330 390268 525
805455 866859 525
88591 560525 470
226713 791394 509
742076 503550 509
600270 416764 470
284107 453289 449
599890 639887 509
755790 804394 468
93746 417267 449
671918 415162 509
407296 882967 525
101654 783952 509
862169 424071 525
264616 265005 332
102804 770264 509
581055 503251 470
909420 125841 525
580721 387128 470
775039 367905 509
913372 400864 525
784570 470173 509
228783 739208 509
909244 233041 525
60813 378236 443
932748 394468 525
857524 456690 525
492856 25485 449
