1 10 20
100 200 125
201 210 89
900 1000 174
1 2 2
500000 999999 525
41 90 116
4 99 119
42 87 116
42 45 30
69 85 116
31 91 116
98 100 26
10 41 112
40 89 116
80 89 111
51 54 113
25 88 116
4 53 112
5 46 112
78 86 111
55 80 116
99 100 26
78 88 111
39 79 116
62 85 116
652 899 179
841 874 179
994 996 50
512 825 171
883 940 174
994 999 50
997 1000 112
975 995 143
926 927 130
990 1000 112
311 426 144
519 633 137
537 819 171
810 889 179
409 732 171
921 949 174
261 751 171
901 999 174
870 952 179
942 996 143
618265 909946 525
154046 395005 443
822390 883994 525
462324 843283 525
251433 613403 470
589479 955723 525
93067 251749 443
257513 590248 470
930492 947553 507
341847 749066 509
624555 812951 509
282301 454136 449
618030 647179 509
80838 372704 443
757368 773642 468
327591 373099 441
39311 763648 509
540263 579185 452
978268 998735 440
883426 963855 507
10 1 20
200 100 125
210 201 89
1000 900 174
2 1 2
999999 500000 525
90 41 116
99 4 119
87 42 116
45 42 30
85 69 116
91 31 116
100 98 26
41 10 112
89 40 116
89 80 111
54 51 113
88 25 116
53 4 112
46 5 112
86 78 111
80 55 116
100 99 26
88 78 111
79 39 116
85 62 116
899 652 179
874 841 179
996 994 50
825 512 171
940 883 174
999 994 50
1000 997 112
995 975 143
927 926 130
58 431156 449
121 336354 443
734 39397 324
709 292124 443
214 122521 354
256 949081 525
22 720057 509
1801 53937 340
298 672676 509
381 837402 509
26 494054 449
1777 668217 509
334 95776 351
1015 24635 282
2956 728988 509
4774 915877 525
701 442957 449
2466 59221 340
2255 310622 443
8173 481561 449
2396 773504 509
935 380509 443
30 769783 509
2302 505144 449
7109 868882 525
3868 155999 375
2980 347906 443
9388 785503 509
868 403794 443
2770 672794 509
7022 305682 443
1237 298425 443
647 807574 509
975 697831 509
618 819480 509
2665 14162 276
6841 776048 509
7 404258 443
6234 337579 443
173 316540 443
224 828454 509
3661 788529 509
11324 296089 443
2232 739949 509
3479 808818 509
485 208956 383
1364 314735 443
340 827359 509
253 198991 383
6976 267070 443
3745 922763 525
59 779422 509
16841 22001 279
2776 696290 509
8710 727614 509
4781 192525 383
7085 779734 509
7958 414115 449
3405 414540 449
1450 176807 383
12606 853004 525
13885 942292 525
3518 755537 509
93 779206 509
4906 180089 383
5662 591675 470
90 394988 443
2181 772785 509
1529 62104 340
470 309721 443
12623 641703 509
6476 573159 470
3432 46206 324
13375 149856 375
14797 936024 525
8555 436327 449
12094 453910 449
6713 712564 509
10975 458331 449
11851 103776 351
11574 32917 308
16156 204735 383
8459 576147 470
9106 327006 443
15772 262426 443
3074 286512 443
4341 158216 383
2991 570014 470
3336 186249 383
20777 326445 443
783 319374 443
175637 3932 383
925629 27511 525
52841 8108 340
918950 17520 525
405223 13354 443
339813 4061 443
639362 736 509
683058 16208 509
924360 2000 525
664794 15481 509
506480 2024 449
25366 13516 282
743575 9170 509
142903 11021 375
6589 4083 262
662842 636 509
581804 7400 470
127187 29966 354
12766 6188 268
637761 7058 509
869893 4706 525
144087 17608 375
669648 28256 509
314087 12854 443
902247 9865 525
570419 1025 470
573476 6789 470
592642 1437 470
940036 22549 525
371426 1729 443
386940 33970 443
772394 15698 509
92472 18852 351
113838 2564 354
986888 46290 525
712211 18494 509
630248 1291 509
781690 9262 509
807514 168 509
